{
  "posts": [
    {
      "title": "제목1",
      "content": "내용1",
      "createdAt": 1695262024738,
      "id": 1
    },
    {
      "title": "제목2",
      "content": "내용2",
      "createdAt": 1695262024739,
      "id": 2
    },
    {
      "title": "제목32",
      "content": "내용32",
      "createdAt": 1695262024740,
      "id": 3
    },
    {
      "title": "제목4",
      "content": "내용4",
      "createdAt": 1695262024741,
      "id": 4
    },
    {
      "title": "제목51",
      "content": "내용51",
      "createdAt": 1695262024742,
      "id": 5
    },
    {
      "title": "테스트 등록",
      "content": "테스트등록",
      "createdAt": 1695985864411,
      "id": 6
    },
    {
      "title": "테스트2",
      "content": "테스트2",
      "createdAt": 1695985969886,
      "id": 7
    },
    {
      "title": "테스트 5",
      "content": "테스트",
      "createdAt": 1695986096575,
      "id": 8
    },
    {
      "title": "테스트6",
      "content": "테",
      "createdAt": 1695986106531,
      "id": 9
    },
    {
      "title": "테스트 10",
      "content": "10",
      "createdAt": 1695986113450,
      "id": 10
    },
    {
      "title": "테스트123",
      "content": "123",
      "createdAt": 1695986129900,
      "id": 11
    },
    {
      "title": "테스트 33",
      "content": "33",
      "createdAt": 1695986138402,
      "id": 12
    }
  ]
}